Date	Holiday	Mini Project	Critique	Exam
Jan 25	0	0	1	0
Feb 01	0	1	0	0
Feb 08	0	1	0	0
Feb 15	0	0	2	0
Feb 22	0	2	0	0
Mar 01	0	2	0	0
Mar 08	0	0	3	0
Mar 15	0	3	0	0
Mar 22	0	3	0	0
Mar 29	0	0	4	0
Apr 05	1	0	0	0
Apr 12	1	0	0	0
Apr 19	0	4	0	0
Apr 26	0	4	0	0
May 03	1	0	0	0
May 10	0	0	0	1
May 17	0	0	0	1
May 24	0	0	0	1